{
  "type": "PATH",
  "time": "2020-10-06T16:58:58.518000+00:00",
  "seq": 72170,
  "item": 1,
  "name": "/etc/bind/zones/db.example.com",
  "inode": 527881,
  "dev": "fc:02",
  "mode": "file,644",
  "ouid": "root",
  "ogid": "bind",
  "rdev": "00:00",
  "nametype": "CREATE",
  "cap_fp": "0",
  "cap_fi": "0",
  "cap_fe": "0",
  "cap_fver": "0",
  "cap_frootid": "0",
  "EventReceivedTime": "2020-10-06T16:58:58.530798+00:00",
  "SourceModuleName": "LinuxAudit",
  "SourceModuleType": "im_linuxaudit"
}
